[
    {
        "full_name": "Harold Hartshorn",
        "birth_date": "1939-01-01",
        "birth_place": "Derbyshire, England",
        "death_date": "1970-06-01",
        "death_place": "Derby, Derbyshire, England",
        "birth_coordinates": {
            "latitude": 53.1046782,
            "longitude": -1.5623885
        },
        "death_coordinates": {
            "latitude": 52.9225301,
            "longitude": -1.4746186
        }
    },
    {
        "full_name": "Esther Agnes Fletcher",
        "birth_date": "1920-12-29",
        "birth_place": "Derby, Derbyshire",
        "death_date": "2007-01-01",
        "death_place": "Derby, Derbyshire, England",
        "birth_coordinates": {
            "latitude": 52.9225301,
            "longitude": -1.4746186
        },
        "death_coordinates": {
            "latitude": 52.9225301,
            "longitude": -1.4746186
        }
    },
    {
        "full_name": "Joseph Allen",
        "birth_date": "1939-01-01",
        "birth_place": "Leicestershire, England",
        "death_date": "1993-04-29",
        "death_place": "Manchester",
        "birth_coordinates": {
            "latitude": 52.772571,
            "longitude": -1.2052126
        },
        "death_coordinates": {
            "latitude": 53.4807593,
            "longitude": -2.2426305
        }
    },
    {
        "full_name": "Evelyn Archer",
        "birth_date": "1939-01-01",
        "birth_place": "Derbyshire, England",
        "death_date": "1985-01-01",
        "death_place": "Derby, Derbyshire, England",
        "birth_coordinates": {
            "latitude": 53.1046782,
            "longitude": -1.5623885
        },
        "death_coordinates": {
            "latitude": 52.9225301,
            "longitude": -1.4746186
        }
    },
    {
        "full_name": "Percy Richard Illingworth Hartshorn",
        "birth_date": "1911-04-2",
        "birth_place": "Burnley, Lancashire, England",
        "death_date": "1932-12-8",
        "death_place": "Victoria Hospital, Burnley, Lancashire, England",
        "birth_coordinates": {
            "latitude": 53.7892877,
            "longitude": -2.2405035
        },
        "death_coordinates": {
            "latitude": 53.8034198,
            "longitude": -2.2284499
        }
    },
    {
        "full_name": "Bernard Arthur Hartshorn",
        "birth_date": "1939-01-01",
        "birth_place": "Lancashire, England",
        "death_date": "1974-06-01",
        "death_place": "Birkenhead, Cheshire, England",
        "birth_coordinates": {
            "latitude": 53.7632254,
            "longitude": -2.7044052
        },
        "death_coordinates": {
            "latitude": 53.38811639999999,
            "longitude": -3.0299176
        }
    },
    {
        "full_name": "Terence H Hartshorn",
        "birth_date": "1939-01-01",
        "birth_place": "Derbyshire, England",
        "death_date": "1967-09-01",
        "death_place": "Derby, Derbyshire England",
        "birth_coordinates": {
            "latitude": 53.1046782,
            "longitude": -1.5623885
        },
        "death_coordinates": {
            "latitude": 52.9225301,
            "longitude": -1.4746186
        }
    },
    {
        "full_name": "Patrick Allen",
        "birth_date": "1891-01-01",
        "birth_place": "Forest Gate All Saints, East Ham, Essex, England",
        "death_date": "1940-01-01",
        "death_place": "Derby, Derbyshire, England",
        "birth_coordinates": {
            "latitude": 51.5439215,
            "longitude": 0.0264272
        },
        "death_coordinates": {
            "latitude": 52.9225301,
            "longitude": -1.4746186
        }
    },
    {
        "full_name": "John Archer",
        "birth_date": "1939-01-01",
        "birth_place": "Derbyshire, England",
        "death_date": "1974-04-01",
        "death_place": "Derby, Derbyshire, England",
        "birth_coordinates": {
            "latitude": 53.1046782,
            "longitude": -1.5623885
        },
        "death_coordinates": {
            "latitude": 52.9225301,
            "longitude": -1.4746186
        }
    },
    {
        "full_name": "Florrie Waterfield",
        "birth_date": "1939-01-01",
        "birth_place": "Derbyshire, England",
        "death_date": "1994-09-01",
        "death_place": "Derby, Derbyshire, England",
        "birth_coordinates": {
            "latitude": 53.1046782,
            "longitude": -1.5623885
        },
        "death_coordinates": {
            "latitude": 52.9225301,
            "longitude": -1.4746186
        }
    },
    {
        "full_name": "Charles Francis Archer",
        "birth_date": "1939-01-01",
        "birth_place": "Derbyshire, England",
        "death_date": "1943-08-24",
        "death_place": "Nottingham, England",
        "birth_coordinates": {
            "latitude": 53.1046782,
            "longitude": -1.5623885
        },
        "death_coordinates": {
            "latitude": 52.9540223,
            "longitude": -1.1549892
        }
    },
    {
        "full_name": "Edward Henry Fletcher",
        "birth_date": "1911-01-01",
        "birth_place": "Derby",
        "death_date": "1932-03-01",
        "death_place": "Derby, Derbyshire, England",
        "birth_coordinates": {
            "latitude": 52.9225301,
            "longitude": -1.4746186
        },
        "death_coordinates": {
            "latitude": 52.9225301,
            "longitude": -1.4746186
        }
    },
    {
        "full_name": "Esther Pickering",
        "birth_date": "1939-01-01",
        "birth_place": "Derbyshire, England",
        "death_date": "1945-12-01",
        "death_place": "Derby, Derbyshire, England",
        "birth_coordinates": {
            "latitude": 53.1046782,
            "longitude": -1.5623885
        },
        "death_coordinates": {
            "latitude": 52.9225301,
            "longitude": -1.4746186
        }
    },
    {
        "full_name": "Agnes Bull",
        "birth_date": "1911-01-01",
        "birth_place": "Derby, Derbyshire, England",
        "death_date": "1924-07-01",
        "death_place": "Derby, Derbyshire, England",
        "birth_coordinates": {
            "latitude": 52.9225301,
            "longitude": -1.4746186
        },
        "death_coordinates": {
            "latitude": 52.9225301,
            "longitude": -1.4746186
        }
    },
    {
        "full_name": "Hannah Morley",
        "birth_date": "1851-01-01",
        "birth_place": "Dale Abbey, Derbyshire, England",
        "death_date": "1873-01-01",
        "death_place": "Derbyshire, England",
        "birth_coordinates": {
            "latitude": 52.945556,
            "longitude": -1.350919
        },
        "death_coordinates": {
            "latitude": 53.1046782,
            "longitude": -1.5623885
        }
    },
    {
        "full_name": "Joseph Moorley",
        "birth_date": "1881-01-01",
        "birth_place": "Ockbrook, Derbyshire, England",
        "death_date": "1888-01-01",
        "death_place": "Derbyshire, England",
        "birth_coordinates": {
            "latitude": 52.9192623,
            "longitude": -1.3714437
        },
        "death_coordinates": {
            "latitude": 53.1046782,
            "longitude": -1.5623885
        }
    },
    {
        "full_name": "Hannah Coxen",
        "birth_date": "1803-01-01",
        "birth_place": "Wilne",
        "death_date": "1818-09-3",
        "death_place": "Derbyshire, England",
        "birth_coordinates": {
            "latitude": 52.873044,
            "longitude": -1.334552
        },
        "death_coordinates": {
            "latitude": 53.1046782,
            "longitude": -1.5623885
        }
    },
    {
        "full_name": "Joseph \"Josh\" Moorley",
        "birth_date": "1780-01-01",
        "birth_place": "Aston, Derbyshire, England",
        "death_date": "1862-03-17",
        "death_place": "Derbyshire, England",
        "birth_coordinates": {
            "latitude": 53.3538994,
            "longitude": -1.7237042
        },
        "death_coordinates": {
            "latitude": 53.1046782,
            "longitude": -1.5623885
        }
    },
    {
        "full_name": "Arthur Thomas Hartshorn",
        "birth_date": "1911-01-01",
        "birth_place": "Burnley, Lancashire, England",
        "death_date": "1923-01-12",
        "death_place": "58 Holbeck Street, Burnley, Lancs. England, UK",
        "birth_coordinates": {
            "latitude": 53.7892877,
            "longitude": -2.2405035
        },
        "death_coordinates": {
            "latitude": 53.802228,
            "longitude": -2.239402
        }
    },
    {
        "full_name": "Ann Horne",
        "birth_date": "1911-01-01",
        "birth_place": "Burnley, Lancashire, England",
        "death_date": "1938-09-15",
        "death_place": "Manchester, England",
        "birth_coordinates": {
            "latitude": 53.7892877,
            "longitude": -2.2405035
        },
        "death_coordinates": {
            "latitude": 53.4807593,
            "longitude": -2.2426305
        }
    },
    {
        "full_name": "Charles Walgate",
        "birth_date": "1914-01-01",
        "birth_place": "Western European Theatre",
        "death_date": "1918-03-21",
        "death_place": "Pozieres, Departement de la Somme, Picardie, France",
        "birth_coordinates": {
            "latitude": 46.2021848,
            "longitude": 1.2643875
        },
        "death_coordinates": {
            "latitude": 50.040206,
            "longitude": 2.724686
        }
    },
    {
        "full_name": "Francis Pickering",
        "birth_date": "1939-01-01",
        "birth_place": "Derbyshire, England",
        "death_date": "1947-07-01",
        "death_place": "Derby, Derbyshire, England",
        "birth_coordinates": {
            "latitude": 53.1046782,
            "longitude": -1.5623885
        },
        "death_coordinates": {
            "latitude": 52.9225301,
            "longitude": -1.4746186
        }
    },
    {
        "full_name": "Stephen Pickering",
        "birth_date": "1911-01-01",
        "birth_place": "Derby, Derbyshire, England",
        "death_date": "1922-10-01",
        "death_place": "Derby, Derbyshire, England",
        "birth_coordinates": {
            "latitude": 52.9225301,
            "longitude": -1.4746186
        },
        "death_coordinates": {
            "latitude": 52.9225301,
            "longitude": -1.4746186
        }
    },
    {
        "full_name": "Zachariah Pickering",
        "birth_date": "1861-01-01",
        "birth_place": "Bridge Hill, Belper, Derbyshire, England",
        "death_date": "1868-01-01",
        "death_place": "Belper, Derbyshire",
        "birth_coordinates": null,
        "death_coordinates": {
            "latitude": 53.0243899,
            "longitude": -1.477616
        }
    },
    {
        "full_name": "Sarah Stafford",
        "birth_date": "1881-01-01",
        "birth_place": "Ashleyhay, Derbyshire, England",
        "death_date": "1890-01-01",
        "death_place": "Derbyshire, United Kingdom",
        "birth_coordinates": {
            "latitude": 53.0627939,
            "longitude": -1.542348
        },
        "death_coordinates": {
            "latitude": 53.1046782,
            "longitude": -1.5623885
        }
    },
    {
        "full_name": "Stephen Pickering",
        "birth_date": "1785-05-22",
        "birth_place": "Kirk Ireton",
        "death_date": "1850-01-01",
        "death_place": "England",
        "birth_coordinates": {
            "latitude": 53.0480299,
            "longitude": -1.602
        },
        "death_coordinates": {
            "latitude": 52.3555177,
            "longitude": -1.1743197
        }
    },
    {
        "full_name": "Joshua Ward",
        "birth_date": "1722-01-01",
        "birth_place": "Callow, Derbyshire, England, United Kingdom",
        "death_date": "1803-05-22",
        "death_place": "Callow, Derbyshire, England, United Kingdom",
        "birth_coordinates": {
            "latitude": 53.0646795,
            "longitude": -1.603194
        },
        "death_coordinates": {
            "latitude": 53.0646795,
            "longitude": -1.603194
        }
    },
    {
        "full_name": "Margreat Spensur",
        "birth_date": "1620-01-01",
        "birth_place": "Wirksworth, Derbyshire, England, United Kingdom",
        "death_date": "1645-01-01",
        "death_place": "Wirksworth, Derbyshire, England, United Kingdom",
        "birth_coordinates": {
            "latitude": 53.082819,
            "longitude": -1.570677
        },
        "death_coordinates": {
            "latitude": 53.082819,
            "longitude": -1.570677
        }
    },
    {
        "full_name": "William Wallgate",
        "birth_date": "1911-01-01",
        "birth_place": "Leicester, Leicestershire, England",
        "death_date": "1933-01-01",
        "death_place": "Leicester, Leicestershire, England",
        "birth_coordinates": {
            "latitude": 52.6368778,
            "longitude": -1.1397592
        },
        "death_coordinates": {
            "latitude": 52.6368778,
            "longitude": -1.1397592
        }
    },
    {
        "full_name": "Hannah Kate Roddis",
        "birth_date": "1901-01-01",
        "birth_place": "Leicester formerly St Margaret, Leicestershire, England",
        "death_date": "1901-01-01",
        "death_place": "Leicestershire, United Kingdom",
        "birth_coordinates": {
            "latitude": 52.772571,
            "longitude": -1.2052126
        },
        "death_coordinates": {
            "latitude": 52.772571,
            "longitude": -1.2052126
        }
    },
    {
        "full_name": "John Walgate",
        "birth_date": "1871-01-01",
        "birth_place": "St George and St Margaret, Leicestershire, England",
        "death_date": "1881-01-01",
        "death_place": "Leicestershire, United Kingdom",
        "birth_coordinates": {
            "latitude": 52.772571,
            "longitude": -1.2052126
        },
        "death_coordinates": {
            "latitude": 52.772571,
            "longitude": -1.2052126
        }
    },
    {
        "full_name": "William McKenna",
        "birth_date": "1906-07-3",
        "birth_place": "Middlesbrough, Yorkshire North Riding",
        "death_date": "1968-11-23",
        "death_place": "Teesside South, Yorkshire North Riding, England",
        "birth_coordinates": {
            "latitude": 54.574227,
            "longitude": -1.234956
        },
        "death_coordinates": {
            "latitude": 53.46969679999999,
            "longitude": -1.3259683
        }
    },
    {
        "full_name": "Constance Monica Beresford",
        "birth_date": "1907-10-29",
        "birth_place": "Middlesbrough, Yorkshire North Riding",
        "death_date": "1990-11-23",
        "death_place": "Nunthorpe Middlesbrough",
        "birth_coordinates": {
            "latitude": 54.574227,
            "longitude": -1.234956
        },
        "death_coordinates": {
            "latitude": 54.526824,
            "longitude": -1.168795
        }
    },
    {
        "full_name": "Michael McKenna",
        "birth_date": "1943-07-29",
        "birth_place": "Middlesbrough, Yorkshire, England",
        "death_date": "2004-11-13",
        "death_place": "New South Wales Nelson Bay",
        "birth_coordinates": {
            "latitude": 54.574227,
            "longitude": -1.234956
        },
        "death_coordinates": {
            "latitude": -32.7207997,
            "longitude": 152.1414358
        }
    },
    {
        "full_name": "Stephen Pickering",
        "birth_date": "1914-01-01",
        "birth_place": "Wirksworth, Derbyshire",
        "death_date": "1917-01-2",
        "death_place": "France",
        "birth_coordinates": {
            "latitude": 53.082819,
            "longitude": -1.570677
        },
        "death_coordinates": {
            "latitude": 46.227638,
            "longitude": 2.213749
        }
    },
    {
        "full_name": "Francis Pickering",
        "birth_date": "1891-01-01",
        "birth_place": "Ashleyhay, Wirksworth, Ashleyhay, Derbyshire, England",
        "death_date": "1960-10-11",
        "death_place": "Derbyshire, England",
        "birth_coordinates": {
            "latitude": 53.082819,
            "longitude": -1.570677
        },
        "death_coordinates": {
            "latitude": 53.1046782,
            "longitude": -1.5623885
        }
    },
    {
        "full_name": "William Moxon Waterfield",
        "birth_date": "1935-06-21",
        "birth_place": "Wirksworth",
        "death_date": "1963-08-17",
        "death_place": "Regina, Regina Census Division, Saskatchewan, Canada",
        "birth_coordinates": {
            "latitude": 53.082819,
            "longitude": -1.570677
        },
        "death_coordinates": {
            "latitude": 50.4452112,
            "longitude": -104.6188944
        }
    },
    {
        "full_name": "Beatrice Warwick",
        "birth_date": "1901-01-01",
        "birth_place": "Burton, Staffordshire, England",
        "death_date": "1958-10-25",
        "death_place": "Regina, Regina Census Division, Saskatchewan, Canada",
        "birth_coordinates": {
            "latitude": 52.8175511,
            "longitude": -1.6205867
        },
        "death_coordinates": {
            "latitude": 50.4452112,
            "longitude": -104.6188944
        }
    },
    {
        "full_name": "Michael Hartshorn",
        "birth_date": "1911-01-01",
        "birth_place": "Nottingham, Nottinghamshire, England",
        "death_date": "1927-04-01",
        "death_place": "Nottingham, Nottinghamshire, England",
        "birth_coordinates": {
            "latitude": 52.9540223,
            "longitude": -1.1549892
        },
        "death_coordinates": {
            "latitude": 52.9540223,
            "longitude": -1.1549892
        }
    },
    {
        "full_name": "Charles Hartshorn",
        "birth_date": "1891-01-01",
        "birth_place": "Nottingham, St Peter, St Peter, Nottinghamshire, England",
        "death_date": "1895-01-14",
        "death_place": "Nottinghamshire, England",
        "birth_coordinates": {
            "latitude": 52.9572335,
            "longitude": -1.1802635
        },
        "death_coordinates": {
            "latitude": 52.9540223,
            "longitude": -1.1549892
        }
    },
    {
        "full_name": "George Hartshorn",
        "birth_date": "1776-01-01",
        "birth_place": "Broseley, Shropshire, England",
        "death_date": "1836-07-17",
        "death_place": "Derbyshire, England",
        "birth_coordinates": {
            "latitude": 52.611527,
            "longitude": -2.4834109
        },
        "death_coordinates": {
            "latitude": 53.1046782,
            "longitude": -1.5623885
        }
    },
    {
        "full_name": "Ann Jones",
        "birth_date": "1851-01-01",
        "birth_place": "Nottingham St Peter, Nottinghamshire, England",
        "death_date": "1853-01-01",
        "death_place": "Nottinghamshire, United Kingdom",
        "birth_coordinates": {
            "latitude": 52.9522586,
            "longitude": -1.1486631
        },
        "death_coordinates": {
            "latitude": 52.9540223,
            "longitude": -1.1549892
        }
    },
    {
        "full_name": "George Hartshorne",
        "birth_date": "1803-11-26",
        "birth_place": "Broseley, Salop, England",
        "death_date": "1806-01-01",
        "death_place": "Derbyshire, England",
        "birth_coordinates": {
            "latitude": 52.611527,
            "longitude": -2.4834109
        },
        "death_coordinates": {
            "latitude": 53.1046782,
            "longitude": -1.5623885
        }
    },
    {
        "full_name": "Mary Bayley",
        "birth_date": "1736-08-29",
        "birth_place": "Madeley, Shropshire, England",
        "death_date": "1811-03-4",
        "death_place": "Shropshire, England",
        "birth_coordinates": {
            "latitude": 52.636284,
            "longitude": -2.4536222
        },
        "death_coordinates": {
            "latitude": 52.7063657,
            "longitude": -2.7417849
        }
    },
    {
        "full_name": "Thomas Hartshorn",
        "birth_date": "1813-01-10",
        "birth_place": "Belper,Derby,England",
        "death_date": "1848-03-01",
        "death_place": "Belper, Derbyshire, England",
        "birth_coordinates": {
            "latitude": 53.0243899,
            "longitude": -1.477616
        },
        "death_coordinates": {
            "latitude": 53.0243899,
            "longitude": -1.477616
        }
    },
    {
        "full_name": "Richard Felic Hartshorne",
        "birth_date": "1783-01-01",
        "birth_place": "Broseley",
        "death_date": "1814-08-28",
        "death_place": "Shropshire, England",
        "birth_coordinates": {
            "latitude": 52.611527,
            "longitude": -2.4834109
        },
        "death_coordinates": {
            "latitude": 52.7063657,
            "longitude": -2.7417849
        }
    },
    {
        "full_name": "Rachel Roden",
        "birth_date": "1716-01-01",
        "birth_place": "Brosely",
        "death_date": "1755-01-01",
        "death_place": "Benthall, Shropshire, England",
        "birth_coordinates": {
            "latitude": 52.611527,
            "longitude": -2.4834109
        },
        "death_coordinates": {
            "latitude": 52.614933,
            "longitude": -2.490077
        }
    },
    {
        "full_name": "John Hartshorne",
        "birth_date": "1716-01-01",
        "birth_place": "Benthall",
        "death_date": "1774-01-15",
        "death_place": "Knighton-On-Teme, Worcester, England",
        "birth_coordinates": {
            "latitude": 52.614933,
            "longitude": -2.490077
        },
        "death_coordinates": {
            "latitude": 52.328271,
            "longitude": -2.541837
        }
    },
    {
        "full_name": "Cicely Roden",
        "birth_date": "1590-06-8",
        "birth_place": "Shropshire, England",
        "death_date": "1651-01-01",
        "death_place": "Broseley, Shropshire, England",
        "birth_coordinates": {
            "latitude": 52.7063657,
            "longitude": -2.7417849
        },
        "death_coordinates": {
            "latitude": 52.611527,
            "longitude": -2.4834109
        }
    },
    {
        "full_name": "Edward Hartshorne",
        "birth_date": "1656-01-3",
        "birth_place": "Broseley,Shropshire,England",
        "death_date": "1717-04-19",
        "death_place": "Shropshire, England",
        "birth_coordinates": {
            "latitude": 52.611527,
            "longitude": -2.4834109
        },
        "death_coordinates": {
            "latitude": 52.7063657,
            "longitude": -2.7417849
        }
    },
    {
        "full_name": "Thome Lee",
        "birth_date": "1554-01-01",
        "birth_place": "Alveley, Shropshire, England",
        "death_date": "1620-11-14",
        "death_place": "Alveley, Shropshire Unitary Authority, Shropshire, England",
        "birth_coordinates": {
            "latitude": 52.458424,
            "longitude": -2.3556689
        },
        "death_coordinates": {
            "latitude": 52.458424,
            "longitude": -2.3556689
        }
    },
    {
        "full_name": "Knight John Lee",
        "birth_date": "1530-01-01",
        "birth_place": "Coton Hall, Nordley Regis, England",
        "death_date": "1605-05-14",
        "death_place": "Aveley Salop Sojournr Latmersh, Buckinghamshire, England",
        "birth_coordinates": {
            "latitude": 52.5727369,
            "longitude": -2.459492
        },
        "death_coordinates": {
            "latitude": 52.7063657,
            "longitude": -2.7417849
        }
    },
    {
        "full_name": "Richardus  I Lee",
        "birth_date": "September",
        "birth_place": "Coton, Nordley Regis, Salop England",
        "death_date": "1621-01-01",
        "death_place": "Stratford Lanthorne, Essex, England",
        "birth_coordinates": {
            "latitude": 52.5727369,
            "longitude": -2.459492
        },
        "death_coordinates": {
            "latitude": 51.57424469999999,
            "longitude": 0.4856781
        }
    },
    {
        "full_name": "Joyce Romney",
        "birth_date": "1530-01-01",
        "birth_place": "Colton, Shropshire, England, United Kingdom",
        "death_date": "1609-01-01",
        "death_place": "Alveley, Shropshire, England",
        "birth_coordinates": {
            "latitude": 52.7063657,
            "longitude": -2.7417849
        },
        "death_coordinates": {
            "latitude": 52.458424,
            "longitude": -2.3556689
        }
    },
    {
        "full_name": "Humfridus Humphrey Sir Knight Delee",
        "birth_date": "1506-01-01",
        "birth_place": "Oxford, Oxfordshire, England",
        "death_date": "1588-01-01",
        "death_place": "Coton Hall, Shropshire, England, United Kingdom",
        "birth_coordinates": {
            "latitude": 51.7520209,
            "longitude": -1.2577263
        },
        "death_coordinates": {
            "latitude": 52.9090639,
            "longitude": -2.6992004
        }
    },
    {
        "full_name": "Lady Katherine Blount",
        "birth_date": "1506-01-01",
        "birth_place": "Eye, Herefordshire, England",
        "death_date": "1591-01-01",
        "death_place": "Coton Hall, Nordley Regis, Shropshire, England",
        "birth_coordinates": {
            "latitude": 52.270777,
            "longitude": -2.73978
        },
        "death_coordinates": {
            "latitude": 52.5727369,
            "longitude": -2.459492
        }
    },
    {
        "full_name": "Elizabeth Yeo",
        "birth_date": "1470-01-01",
        "birth_place": "Shropshire, Shropshire, England, United Kingdom",
        "death_date": "1550-01-01",
        "death_place": "Hertfordshire, Hertfordshire, England, United Kingdom",
        "birth_coordinates": {
            "latitude": 52.7063657,
            "longitude": -2.7417849
        },
        "death_coordinates": {
            "latitude": 51.80978229999999,
            "longitude": -0.2376744
        }
    },
    {
        "full_name": "John Blount",
        "birth_date": "1457-01-01",
        "birth_place": "Eye, Herefordshire, Herefordshire and Worcester, England, United Kingdom",
        "death_date": "1506-01-01",
        "death_place": "Yeo, Herefordshire, Herefordshire and Worcester, England, United Kingdom",
        "birth_coordinates": {
            "latitude": 52.0570408,
            "longitude": -2.7110346
        },
        "death_coordinates": {
            "latitude": 52.0570408,
            "longitude": -2.7110346
        }
    },
    {
        "full_name": "Sir Johannes Delee",
        "birth_date": "1532-01-01",
        "birth_place": "Langley Hall, Shropshire, England, United Kingdom",
        "death_date": "1605-05-14",
        "death_place": "Coton Hall, England, United Kingdom",
        "birth_coordinates": {
            "latitude": 52.7063657,
            "longitude": -2.7417849
        },
        "death_coordinates": {
            "latitude": 52.481038,
            "longitude": -2.340064
        }
    },
    {
        "full_name": "Franciscus Lee",
        "birth_date": "1532-01-01",
        "birth_place": "Coton Hall, Nordley Regis, Shropshire, England, United Kingdom",
        "death_date": "1588-01-01",
        "death_place": "Coton Hall, Nordley Regis, Shropshire, England, United Kingdom",
        "birth_coordinates": {
            "latitude": 52.5727369,
            "longitude": -2.459492
        },
        "death_coordinates": {
            "latitude": 52.5727369,
            "longitude": -2.459492
        }
    },
    {
        "full_name": "Humphrey Lee",
        "birth_date": "1719-12-29",
        "birth_place": "Saint Michael,Tatenhill,Stafford,England",
        "death_date": "1585-01-01",
        "death_place": "Morton Regis, Shropshire, England, United Kingdom",
        "birth_coordinates": {
            "latitude": 52.7940648,
            "longitude": -1.6975318
        },
        "death_coordinates": {
            "latitude": 52.810911,
            "longitude": -3.055888
        }
    },
    {
        "full_name": "Lord Robert Lee",
        "birth_date": "1550-01-01",
        "birth_place": "Bridgenorth, Shropshire, England, United Kingdom",
        "death_date": "1605-01-01",
        "death_place": "England, England, United Kingdom",
        "birth_coordinates": {
            "latitude": 52.53445499999999,
            "longitude": -2.424549
        },
        "death_coordinates": {
            "latitude": 52.3555177,
            "longitude": -1.1743197
        }
    },
    {
        "full_name": "Richard Lee",
        "birth_date": "1537-01-01",
        "birth_place": "Colton, Lancashire, England, United Kingdom",
        "death_date": "1621-01-01",
        "death_place": "95, Shropshire, England, United Kingdom",
        "birth_coordinates": {
            "latitude": 53.7632254,
            "longitude": -2.7044052
        },
        "death_coordinates": {
            "latitude": 52.7063657,
            "longitude": -2.7417849
        }
    },
    {
        "full_name": "Sir Thomas I Lee Leigh",
        "birth_date": "1631-04-01",
        "birth_place": "Bakewell, Derbyshire, England",
        "death_date": "1585-01-01",
        "death_place": "95, Shropshire, England, United Kingdom",
        "birth_coordinates": {
            "latitude": 53.215207,
            "longitude": -1.676171
        },
        "death_coordinates": {
            "latitude": 52.7063657,
            "longitude": -2.7417849
        }
    },
    {
        "full_name": "Johanna Morton",
        "birth_date": "1484-01-01",
        "birth_place": "Haughton, Shropshire, England",
        "death_date": "1526-01-01",
        "death_place": "Coton Hall, Nordley Regis, England",
        "birth_coordinates": {
            "latitude": 52.559009,
            "longitude": -2.475758
        },
        "death_coordinates": {
            "latitude": 52.5727369,
            "longitude": -2.459492
        }
    },
    {
        "full_name": "John Lee",
        "birth_date": "1430-01-01",
        "birth_place": "Coton Hall, Shropshire, , England",
        "death_date": "1478-01-01",
        "death_place": "Coton Hall, Nordley Regis, England",
        "birth_coordinates": {
            "latitude": 52.9090639,
            "longitude": -2.6992004
        },
        "death_coordinates": {
            "latitude": 52.5727369,
            "longitude": -2.459492
        }
    },
    {
        "full_name": "John Lee",
        "birth_date": "1398-01-01",
        "birth_place": "Coton Hall, Nordley Regis, England",
        "death_date": "1465-01-01",
        "death_place": "Coton Hall, Nordley Regis, England",
        "birth_coordinates": {
            "latitude": 52.5727369,
            "longitude": -2.459492
        },
        "death_coordinates": {
            "latitude": 52.5727369,
            "longitude": -2.459492
        }
    },
    {
        "full_name": "Jacosa Packington",
        "birth_date": "1402-01-01",
        "birth_place": "Coton Hall, Nordley Regis, England",
        "death_date": "1450-01-01",
        "death_place": "Coton Hall, Nordley Regis, England",
        "birth_coordinates": {
            "latitude": 52.5727369,
            "longitude": -2.459492
        },
        "death_coordinates": {
            "latitude": 52.5727369,
            "longitude": -2.459492
        }
    },
    {
        "full_name": "Robert (Robert I) Lee",
        "birth_date": "1366-01-01",
        "birth_place": "Shropshire, England",
        "death_date": "1423-01-01",
        "death_place": "Shropshire, England",
        "birth_coordinates": {
            "latitude": 52.7063657,
            "longitude": -2.7417849
        },
        "death_coordinates": {
            "latitude": 52.7063657,
            "longitude": -2.7417849
        }
    },
    {
        "full_name": "Margaret Astley",
        "birth_date": "1354-01-01",
        "birth_place": "Shropshire, England",
        "death_date": "1423-01-01",
        "death_place": "Coton Hall, Nordley Regis, Shropshire, England",
        "birth_coordinates": {
            "latitude": 52.7063657,
            "longitude": -2.7417849
        },
        "death_coordinates": {
            "latitude": 52.5727369,
            "longitude": -2.459492
        }
    },
    {
        "full_name": "John Lee",
        "birth_date": "1340-01-01",
        "birth_place": "Albury, Hertfordshire, England",
        "death_date": "1372-01-01",
        "death_place": "Coton Hall, Nordley Regis, England",
        "birth_coordinates": {
            "latitude": 51.89980329999999,
            "longitude": 0.08928029999999999
        },
        "death_coordinates": {
            "latitude": 52.5727369,
            "longitude": -2.459492
        }
    },
    {
        "full_name": "Sir John Lee",
        "birth_date": "1295-01-01",
        "birth_place": "Langley, Cheshire, England",
        "death_date": "1350-01-01",
        "death_place": "Coton Hall, Nordley Regis, England",
        "birth_coordinates": {
            "latitude": 53.2408942,
            "longitude": -2.0905706
        },
        "death_coordinates": {
            "latitude": 52.5727369,
            "longitude": -2.459492
        }
    },
    {
        "full_name": "Reginald de la Lee",
        "birth_date": "1264-01-01",
        "birth_place": "alderton hall, Shropshire, England",
        "death_date": "1350-01-01",
        "death_place": "lee under, Shropshire, England",
        "birth_coordinates": {
            "latitude": 52.807977,
            "longitude": -2.7510469
        },
        "death_coordinates": {
            "latitude": 52.672711,
            "longitude": -2.868862
        }
    },
    {
        "full_name": "Thomas de la Lee",
        "birth_date": "1239-01-01",
        "birth_place": "Lea Hall, Pimhill, Shropshire, England",
        "death_date": "1260-01-01",
        "death_place": "Lea Alderton Hall, Shropshire, England",
        "birth_coordinates": {
            "latitude": 52.78554639999999,
            "longitude": -2.7550446
        },
        "death_coordinates": {
            "latitude": 52.672711,
            "longitude": -2.868862
        }
    },
    {
        "full_name": "Petrolina Corbet",
        "birth_date": "1238-01-01",
        "birth_place": "Moreton Corbet, Shropshire, England",
        "death_date": "1319-01-01",
        "death_place": "Alderton, Shropshire, England",
        "birth_coordinates": {
            "latitude": 52.803694,
            "longitude": -2.657064
        },
        "death_coordinates": {
            "latitude": 52.807977,
            "longitude": -2.7510469
        }
    },
    {
        "full_name": "Margaret Fitton",
        "birth_date": "1197-01-01",
        "birth_place": "Shropshire, England",
        "death_date": "1270-01-01",
        "death_place": "Shropshire, England",
        "birth_coordinates": {
            "latitude": 52.7063657,
            "longitude": -2.7417849
        },
        "death_coordinates": {
            "latitude": 52.7063657,
            "longitude": -2.7417849
        }
    },
    {
        "full_name": "Hugo de Lega",
        "birth_date": "1130-01-01",
        "birth_place": "Lea Hall, Shropshire, England",
        "death_date": "1182-01-01",
        "death_place": "England",
        "birth_coordinates": {
            "latitude": 52.78554639999999,
            "longitude": -2.7550446
        },
        "death_coordinates": {
            "latitude": 52.3555177,
            "longitude": -1.1743197
        }
    },
    {
        "full_name": "Christian Stanton",
        "birth_date": "1142-01-01",
        "birth_place": "Shropshire, England",
        "death_date": "1203-01-01",
        "death_place": "Beckermet, Westmorland, England",
        "birth_coordinates": {
            "latitude": 52.7063657,
            "longitude": -2.7417849
        },
        "death_coordinates": {
            "latitude": 54.447505,
            "longitude": -3.516837
        }
    },
    {
        "full_name": "John Hartshorne",
        "birth_date": "1726-01-01",
        "birth_place": "Shropshire, England",
        "death_date": "1747-07-01",
        "death_place": "Benthall, Shropshire, England",
        "birth_coordinates": {
            "latitude": 52.7063657,
            "longitude": -2.7417849
        },
        "death_coordinates": {
            "latitude": 52.614933,
            "longitude": -2.490077
        }
    },
    {
        "full_name": "Humphrey Blount",
        "birth_date": "1422-01-01",
        "birth_place": "Kinlet, Shropshire, England",
        "death_date": "1477-01-01",
        "death_place": "Kinlet, Shropshire, England",
        "birth_coordinates": {
            "latitude": 52.419868,
            "longitude": -2.4146921
        },
        "death_coordinates": {
            "latitude": 52.419868,
            "longitude": -2.4146921
        }
    },
    {
        "full_name": "Thomas Blount",
        "birth_date": "1456-01-01",
        "birth_place": "Kinlet, Shropshire, England",
        "death_date": "1524-06-4",
        "death_place": "Kinlet, Shropshire, England",
        "birth_coordinates": {
            "latitude": 52.419868,
            "longitude": -2.4146921
        },
        "death_coordinates": {
            "latitude": 52.419868,
            "longitude": -2.4146921
        }
    },
    {
        "full_name": "John Blount MP",
        "birth_date": "1483-01-01",
        "birth_place": "Kinlet, Shropshire, England",
        "death_date": "1524-01-01",
        "death_place": "Kinlet, Shropshire, England",
        "birth_coordinates": {
            "latitude": 52.419868,
            "longitude": -2.4146921
        },
        "death_coordinates": {
            "latitude": 52.419868,
            "longitude": -2.4146921
        }
    },
    {
        "full_name": "Elizabeth Blount",
        "birth_date": "1502-01-01",
        "birth_place": "Kinlet, Shropshire, England",
        "death_date": "1539-02-6",
        "death_place": "England",
        "birth_coordinates": {
            "latitude": 52.419868,
            "longitude": -2.4146921
        },
        "death_coordinates": {
            "latitude": 52.3555177,
            "longitude": -1.1743197
        }
    },
    {
        "full_name": "Henry Fitzroy Duke of Richmond and Somerset",
        "birth_date": "1519-06-15",
        "birth_place": "Blackmore, Essex, England",
        "death_date": "1536-07-22",
        "death_place": "St James Palace, London, England",
        "birth_coordinates": {
            "latitude": 51.690723,
            "longitude": 0.318145
        },
        "death_coordinates": {
            "latitude": 51.5045855,
            "longitude": -0.1378269
        }
    },
    {
        "full_name": "Henry VIII Tudor King of England",
        "birth_date": "1491-06-28",
        "birth_place": "Greenwich, Kent, England",
        "death_date": "1547-01-28",
        "death_place": "Westminster, Middlesex, England",
        "birth_coordinates": {
            "latitude": 51.4933675,
            "longitude": 0.0098214
        },
        "death_coordinates": {
            "latitude": 51.4974948,
            "longitude": -0.1356583
        }
    },
    {
        "full_name": "Sandra Jean Archer",
        "birth_date": "1945-07-25",
        "birth_place": "Derby, Derbyshire, England",
        "death_date": "2016-01-01",
        "death_place": "Derby, Derbyshire, England",
        "birth_coordinates": {
            "latitude": 52.9225301,
            "longitude": -1.4746186
        },
        "death_coordinates": {
            "latitude": 52.9225301,
            "longitude": -1.4746186
        }
    },
    {
        "full_name": "Richard Orme",
        "birth_date": "1861-01-01",
        "birth_place": "Derby, Christchurch, St Werburgh, Derbyshire, England",
        "death_date": "1862-01-01",
        "death_place": "Derbyshire, United Kingdom",
        "birth_coordinates": {
            "latitude": 53.1046782,
            "longitude": -1.5623885
        },
        "death_coordinates": {
            "latitude": 53.1046782,
            "longitude": -1.5623885
        }
    },
    {
        "full_name": "Hannah Peace",
        "birth_date": "1851-01-01",
        "birth_place": "Derby St Werburgh, Derbyshire, England",
        "death_date": "1857-01-01",
        "death_place": "Derbyshire, United Kingdom",
        "birth_coordinates": {
            "latitude": 53.1046782,
            "longitude": -1.5623885
        },
        "death_coordinates": {
            "latitude": 53.1046782,
            "longitude": -1.5623885
        }
    },
    {
        "full_name": "Thomas Archer",
        "birth_date": "1871-01-01",
        "birth_place": "Hanbury",
        "death_date": "1871-07-01",
        "death_place": "Hanbury, East Staffordshire Borough, Staffordshire, England",
        "birth_coordinates": {
            "latitude": 52.2697106,
            "longitude": -2.0547257
        },
        "death_coordinates": {
            "latitude": 52.84659500000001,
            "longitude": -1.7452479
        }
    },
    {
        "full_name": "Ann Greatorex",
        "birth_date": "1871-01-01",
        "birth_place": "Hanbury",
        "death_date": "1872-01-01",
        "death_place": "Hanbury, East Staffordshire Borough, Staffordshire, England",
        "birth_coordinates": {
            "latitude": 52.2697106,
            "longitude": -2.0547257
        },
        "death_coordinates": {
            "latitude": 52.84659500000001,
            "longitude": -1.7452479
        }
    },
    {
        "full_name": "John le Blount",
        "birth_date": "1347-01-01",
        "birth_place": "Sodington, Worcester, Worcestershire, England",
        "death_date": "1425-01-01",
        "death_place": "Mamble, Cleobury Mortimer, Warwickshire, England",
        "birth_coordinates": {
            "latitude": 52.193636,
            "longitude": -2.221575
        },
        "death_coordinates": {
            "latitude": 52.37843400000001,
            "longitude": -2.4834679
        }
    },
    {
        "full_name": "William Blount",
        "birth_date": "1233-01-01",
        "birth_place": "Belton, Uppingham, Rutland, England",
        "death_date": "1280-06-01",
        "death_place": "Timberlake, Worcestershire, England",
        "birth_coordinates": {
            "latitude": 52.59122499999999,
            "longitude": -0.718484
        },
        "death_coordinates": {
            "latitude": 52.2545225,
            "longitude": -2.2668382
        }
    },
    {
        "full_name": "Sir Robert le Blount",
        "birth_date": "1197-01-01",
        "birth_place": "Ixworth, Suffolk, England",
        "death_date": "1288-01-01",
        "death_place": "Belton, Rutland, England",
        "birth_coordinates": {
            "latitude": 52.29966169999999,
            "longitude": 0.8337756
        },
        "death_coordinates": {
            "latitude": 52.605446,
            "longitude": -0.7945749999999999
        }
    },
    {
        "full_name": "Stephen le Blount",
        "birth_date": "1180-01-01",
        "birth_place": "Ixworth, Suffolk, England",
        "death_date": "1235-01-01",
        "death_place": "Saxlingham, Norfolk, England",
        "birth_coordinates": {
            "latitude": 52.29966169999999,
            "longitude": 0.8337756
        },
        "death_coordinates": {
            "latitude": 52.9156509,
            "longitude": 1.009998
        }
    },
    {
        "full_name": "William Blund",
        "birth_date": "1100-01-01",
        "birth_place": "Suffolk, England",
        "death_date": "1169-01-01",
        "death_place": "Suffolk, England",
        "birth_coordinates": {
            "latitude": 52.1872472,
            "longitude": 0.9707800999999999
        },
        "death_coordinates": {
            "latitude": 52.1872472,
            "longitude": 0.9707800999999999
        }
    },
    {
        "full_name": "Gilbert le Blount",
        "birth_date": "1076-01-01",
        "birth_place": "Bury St Edmunds, Suffolk, England",
        "death_date": "1160-01-01",
        "death_place": "Ixworth, Suffolk, England",
        "birth_coordinates": {
            "latitude": 52.24690409999999,
            "longitude": 0.7112514
        },
        "death_coordinates": {
            "latitude": 52.29966169999999,
            "longitude": 0.8337756
        }
    },
    {
        "full_name": "Raoul de Gu\u00eenes",
        "birth_date": "Bef. 996",
        "birth_place": "Guisnes, Picardy, France",
        "death_date": "1036-05-30",
        "death_place": "Guisnes, Picardy, France",
        "birth_coordinates": {
            "latitude": 49.66361269999999,
            "longitude": 2.5280732
        },
        "death_coordinates": {
            "latitude": 49.66361269999999,
            "longitude": 2.5280732
        }
    },
    {
        "full_name": "Urdulf de Gu\u00eenes",
        "birth_date": "Abt. 965",
        "birth_place": "France",
        "death_date": "996",
        "death_place": "Guisnes, Picardy, France",
        "birth_coordinates": {
            "latitude": 46.227638,
            "longitude": 2.213749
        },
        "death_coordinates": {
            "latitude": 49.66361269999999,
            "longitude": 2.5280732
        }
    },
    {
        "full_name": "Godefrid (Halfdansson) Haraldsson",
        "birth_date": "Bef. 826",
        "birth_place": "Denmark",
        "death_date": "Jun 885",
        "death_place": "Herispich Spijk, Netherlands",
        "birth_coordinates": {
            "latitude": 56.26392,
            "longitude": 9.501785
        },
        "death_coordinates": {
            "latitude": 51.8485918,
            "longitude": 6.15181
        }
    }
]